/Bureau/testreel/images/Mambo_2021-03-07T110549+0100_85E1E0.jpg
/Bureau/testreel/images/Mambo_2021-03-07T110405+0100_85E1E0.jpg
/Bureau/testreel/images/Mambo_2021-03-07T110432+0100_85E1E0.jpg
/Bureau/testreel/images/Mambo_2021-03-07T110228+0100_C56465.jpg
/Bureau/testreel/images/Mambo_2021-03-07T110557+0100_85E1E0.jpg
/Bureau/testreel/images/Mambo_2021-03-07T110415+0100_85E1E0.jpg
/Bureau/testreel/images/Mambo_2021-03-07T110520+0100_85E1E0.jpg
/Bureau/testreel/images/Mambo_2021-03-07T110349+0100_85E1E0.jpg
/Bureau/testreel/images/Mambo_2021-03-07T110511+0100_85E1E0.jpg
/Bureau/testreel/images/Mambo_2021-03-07T110409+0100_85E1E0.jpg
/Bureau/testreel/images/Mambo_2021-03-07T110526+0100_85E1E0.jpg
/Bureau/testreel/images/Mambo_2021-03-07T110425+0100_85E1E0.jpg
/Bureau/testreel/images/Mambo_2021-03-07T110540+0100_85E1E0.jpg
/Bureau/testreel/images/Mambo_2021-03-07T110436+0100_85E1E0.jpg
/Bureau/testreel/images/Mambo_2021-03-07T110420+0100_85E1E0.jpg
/Bureau/testreel/images/Mambo_2021-03-07T110601+0100_85E1E0.jpg
/Bureau/testreel/images/Mambo_2021-03-07T110531+0100_85E1E0.jpg
/Bureau/testreel/images/Mambo_2021-03-07T110545+0100_85E1E0.jpg
/Bureau/testreel/images/Mambo_2021-03-07T110502+0100_85E1E0.jpg
/Bureau/testreel/images/Mambo_2021-03-07T110449+0100_85E1E0.jpg
/Bureau/testreel/images/Mambo_2021-03-07T110535+0100_85E1E0.jpg
/Bureau/testreel/images/Mambo_2021-03-07T110356+0100_85E1E0.jpg
/Bureau/testreel/images/Mambo_2021-03-07T110234+0100_C56465.jpg
/Bureau/testreel/images/Mambo_2021-03-07T110445+0100_85E1E0.jpg
/Bureau/testreel/images/Mambo_2021-03-07T110506+0100_85E1E0.jpg
/Bureau/testreel/images/Mambo_2021-03-07T110455+0100_85E1E0.jpg
/Bureau/testreel/images/Mambo_2021-03-07T110515+0100_85E1E0.jpg
/Bureau/testreel/images/Mambo_2021-03-07T110552+0100_85E1E0.jpg
