{
    "processing_statistics": {
        "steps_times": {
            "Feature Extraction": 11.238568536999992,
            "Features Matching": 7.380238884999983,
            "Tracks Merging": 0.13309041499996965,
            "Reconstruction": 0.9117999000000054,
            "Total Time": 19.66369773699995
        },
        "date": "07/03/2021 at 16:39:10",
        "area": 102.92817130771947
    },
    "features_statistics": {
        "detected_features": {
            "min": 776,
            "max": 2207,
            "mean": 1261,
            "median": 1153
        },
        "reconstructed_features": {
            "min": 49,
            "max": 485,
            "mean": 197,
            "median": 139
        }
    },
    "matching_statistics": {},
    "reconstruction_statistics": {
        "components": 4,
        "has_gps": true,
        "has_gcp": false,
        "initial_points_count": 1765,
        "initial_shots_count": 28,
        "reconstructed_points_count": 1318,
        "reconstructed_shots_count": 15,
        "observations_count": 2979,
        "average_track_length": 2.2602427921092563,
        "average_track_length_over_two": 3.261029411764706,
        "histogram_track_length": {
            "2": 1046,
            "3": 222,
            "4": 34,
            "5": 11,
            "6": 5
        },
        "reprojection_error": 0.3973914800894017
    },
    "camera_errors": {
        "v2 parrot mambo 640 480 brown 0.4166 rgb": {
            "initial_values": {
                "k1": 0.0,
                "k2": 0.0,
                "k3": 0.0,
                "p1": 0.0,
                "p2": 0.0,
                "focal": 0.4166666666666667,
                "aspect_ratio": 1.0,
                "cx": 0.0,
                "cy": 0.0
            },
            "optimized_values": {
                "k1": -0.004011300079788928,
                "k2": -0.0028369273091338513,
                "k3": 0.002510586894424526,
                "p1": -0.006166028056070777,
                "p2": -0.00023402800757913936,
                "focal": 0.4165683553397597,
                "aspect_ratio": 1.0,
                "cx": -0.0002951153623461309,
                "cy": 0.0003321867554263503
            }
        }
    },
    "gps_errors": {
        "mean": {
            "x": -0.15414848129688138,
            "y": 0.16744203222286852,
            "z": -0.3781479723386961
        },
        "std": {
            "x": 2.990323124548099,
            "y": 2.228727749077494,
            "z": 0.6415482567655033
        },
        "error": {
            "x": 2.994293596742517,
            "y": 2.2350087726143175,
            "z": 0.7447013191493106
        },
        "average_error": 3.039654065508167
    },
    "gcp_errors": {}
}