{
  "file_size": 183999,
  "filename": "/Bureau/testreel/odm_georeferencing/odm_georeferenced_model.laz",
  "now": "2021-03-07T16:39:56+0000",
  "pdal_version": "2.2.0 (git-version: Release)",
  "reader": "readers.las",
  "stats":
  {
    "bbox":
    {
      "native":
      {
        "bbox":
        {
          "maxx": 12.91,
          "maxy": 7.95,
          "maxz": -7.01,
          "minx": -10.22,
          "miny": -8.68,
          "minz": -8.29
        },
        "boundary": { "type": "Polygon", "coordinates": [ [ [ -10.22, -8.68, -8.29 ], [ -10.22, 7.95, -8.29 ], [ 12.91, 7.95, -7.01 ], [ 12.91, -8.68, -7.01 ], [ -10.22, -8.68, -8.29 ] ] ] }
      }
    },
    "statistic":
    [
      {
        "average": 2.667651948,
        "count": 63410,
        "maximum": 12.91,
        "minimum": -10.22,
        "name": "X",
        "position": 0,
        "stddev": 5.079133477,
        "variance": 25.79759688
      },
      {
        "average": -1.751567891,
        "count": 63410,
        "maximum": 7.95,
        "minimum": -8.68,
        "name": "Y",
        "position": 1,
        "stddev": 3.353582246,
        "variance": 11.24651388
      },
      {
        "average": -7.549845766,
        "count": 63410,
        "maximum": -7.01,
        "minimum": -8.29,
        "name": "Z",
        "position": 2,
        "stddev": 0.192108898,
        "variance": 0.03690582869
      }
    ]
  }
}
